Lab2/simulation/qsim/lab2.msim.vcd
$comment
	File created using the following command:
		vcd file lab2.msim.vcd -direction
$end
$date
	Tue Sep 02 07:59:33 2025
$end
$version
	ModelSim Version 2019.2
$end
$timescale
	1ps
$end

$scope module lab2_vhd_vec_tst $end
$var wire 1 ! E $end
$var wire 1 " F $end
$var wire 1 # G $end
$var wire 1 $ X $end
$var wire 1 % Y $end
$var wire 1 & Z $end

$scope module i1 $end
$var wire 1 ' gnd $end
$var wire 1 ( vcc $end
$var wire 1 ) unknown $end
$var wire 1 * devoe $end
$var wire 1 + devclrn $end
$var wire 1 , devpor $end
$var wire 1 - ww_devoe $end
$var wire 1 . ww_devclrn $end
$var wire 1 / ww_devpor $end
$var wire 1 0 ww_E $end
$var wire 1 1 ww_X $end
$var wire 1 2 ww_Z $end
$var wire 1 3 ww_F $end
$var wire 1 4 ww_Y $end
$var wire 1 5 ww_G $end
$var wire 1 6 \~QUARTUS_CREATED_GND~I_combout\ $end
$var wire 1 7 \Z~input_o\ $end
$var wire 1 8 \X~input_o\ $end
$var wire 1 9 \Y~input_o\ $end
$var wire 1 : \inst9~0_combout\ $end
$var wire 1 ; \inst12~0_combout\ $end
$var wire 1 < \ALT_INV_Y~input_o\ $end
$var wire 1 = \ALT_INV_X~input_o\ $end
$var wire 1 > \ALT_INV_Z~input_o\ $end
$upscope $end
$upscope $end
$enddefinitions $end
#0
$dumpvars
1!
0"
0#
0$
0%
0&
0'
1(
x)
1*
1+
1,
1-
1.
1/
10
01
02
03
04
05
x6
07
08
09
0:
0;
1<
1=
1>
$end
#10000
1&
12
17
0>
1:
1;
00
0!
15
13
1#
1"
#20000
0&
1%
02
14
19
07
0<
1>
0;
10
1!
05
0#
#30000
1&
12
17
0>
0:
1;
00
0!
15
03
1#
0"
#40000
0&
0%
1$
02
04
11
18
09
07
0=
1<
1>
1:
0;
10
1!
05
13
0#
1"
#50000
1&
12
17
0>
00
0!
#60000
0&
1%
02
14
19
07
0<
1>
0:
1;
10
1!
15
03
1#
0"
#70000
1&
12
17
0>
00
0!
