Lab3/simulation/qsim/lab3.msim.vcd
$comment
	File created using the following command:
		vcd file lab3.msim.vcd -direction
$end
$date
	Tue Sep 09 08:48:46 2025
$end
$version
	ModelSim Version 2019.2
$end
$timescale
	1ps
$end

$scope module lab3_vhd_vec_tst $end
$var wire 1 ! a $end
$var wire 1 " a_cond $end
$var wire 1 # a_sel $end
$var wire 1 $ b $end
$var wire 1 % b_cond $end
$var wire 1 & b_sel $end
$var wire 1 ' c $end
$var wire 1 ( c_cond $end
$var wire 1 ) c_sel $end
$var wire 1 * d $end
$var wire 1 + d_cond $end
$var wire 1 , d_sel $end
$var wire 1 - e $end
$var wire 1 . e_cond $end
$var wire 1 / e_sel $end
$var wire 1 0 f $end
$var wire 1 1 f_cond $end
$var wire 1 2 f_sel $end
$var wire 1 3 g $end
$var wire 1 4 g_cond $end
$var wire 1 5 g_sel $end
$var wire 1 6 w $end
$var wire 1 7 x $end
$var wire 1 8 y $end
$var wire 1 9 z $end

$scope module i1 $end
$var wire 1 : gnd $end
$var wire 1 ; vcc $end
$var wire 1 < unknown $end
$var wire 1 = devoe $end
$var wire 1 > devclrn $end
$var wire 1 ? devpor $end
$var wire 1 @ ww_devoe $end
$var wire 1 A ww_devclrn $end
$var wire 1 B ww_devpor $end
$var wire 1 C ww_w $end
$var wire 1 D ww_x $end
$var wire 1 E ww_y $end
$var wire 1 F ww_z $end
$var wire 1 G ww_a $end
$var wire 1 H ww_b $end
$var wire 1 I ww_c $end
$var wire 1 J ww_d $end
$var wire 1 K ww_e $end
$var wire 1 L ww_f $end
$var wire 1 M ww_g $end
$var wire 1 N ww_a_sel $end
$var wire 1 O ww_b_sel $end
$var wire 1 P ww_c_sel $end
$var wire 1 Q ww_d_sel $end
$var wire 1 R ww_e_sel $end
$var wire 1 S ww_f_sel $end
$var wire 1 T ww_g_sel $end
$var wire 1 U ww_a_cond $end
$var wire 1 V ww_b_cond $end
$var wire 1 W ww_c_cond $end
$var wire 1 X ww_d_cond $end
$var wire 1 Y ww_e_cond $end
$var wire 1 Z ww_f_cond $end
$var wire 1 [ ww_g_cond $end
$var wire 1 \ \~QUARTUS_CREATED_GND~I_combout\ $end
$var wire 1 ] \z~input_o\ $end
$var wire 1 ^ \w~input_o\ $end
$var wire 1 _ \y~input_o\ $end
$var wire 1 ` \x~input_o\ $end
$var wire 1 a \a~0_combout\ $end
$var wire 1 b \b~0_combout\ $end
$var wire 1 c \c~0_combout\ $end
$var wire 1 d \d~0_combout\ $end
$var wire 1 e \f~0_combout\ $end
$var wire 1 f \g~0_combout\ $end
$var wire 1 g \Mux0~0_combout\ $end
$var wire 1 h \Mux1~0_combout\ $end
$var wire 1 i \Mux2~0_combout\ $end
$var wire 1 j \Mux3~0_combout\ $end
$var wire 1 k \Mux5~0_combout\ $end
$var wire 1 l \Mux6~0_combout\ $end
$var wire 1 m \d_cond~0_combout\ $end
$var wire 1 n \f_cond~0_combout\ $end
$var wire 1 o \ALT_INV_Mux6~0_combout\ $end
$var wire 1 p \ALT_INV_y~input_o\ $end
$var wire 1 q \ALT_INV_x~input_o\ $end
$var wire 1 r \ALT_INV_z~input_o\ $end
$var wire 1 s \ALT_INV_w~input_o\ $end
$upscope $end
$upscope $end
$enddefinitions $end
#0
$dumpvars
0!
0"
0#
0$
0%
0&
0'
0(
0)
0*
0+
0,
0-
0.
0/
00
01
02
13
14
15
06
07
08
09
0:
1;
x<
1=
1>
1?
1@
1A
1B
0C
0D
0E
0F
0G
0H
0I
0J
0K
0L
1M
0N
0O
0P
0Q
0R
0S
1T
0U
0V
0W
0X
0Y
0Z
1[
x\
0]
0^
0_
0`
0a
0b
0c
0d
0e
1f
0g
0h
0i
0j
0k
0l
0m
0n
1o
1p
1q
1r
1s
$end
#10000
19
1F
1]
0r
1d
0f
1j
1l
1m
0o
1X
1Y
1Q
1R
0M
1J
1K
0T
0[
1+
1.
1,
1/
03
1*
1-
05
04
#20000
09
18
0F
1E
1_
0]
0p
1r
1a
1b
1c
1e
1g
1h
1i
1k
1n
1Z
1S
1P
1O
1V
1N
1U
1L
1I
1W
1H
1G
11
12
1)
1&
1%
1#
1"
10
1'
1(
1$
1!
#30000
19
1F
1]
0r
0a
0b
0d
0g
0h
0j
0m
0X
0Y
0Q
0R
0O
0V
0N
0U
0J
0K
0H
0G
0+
0.
0,
0/
0&
0%
0#
0"
0*
0-
0$
0!
#40000
09
08
17
0F
0E
1D
1`
0_
0]
0q
1p
1r
1a
0c
1d
1f
1g
0i
1j
0l
1m
1o
1X
1Y
1Q
1R
0P
1N
1U
1M
1J
1K
0I
0W
1G
1T
1[
1+
1.
1,
1/
0)
1#
1"
13
1*
1-
0'
0(
1!
15
14
#50000
19
1F
1]
0r
1b
1c
0f
1h
1i
1l
0o
1P
1O
1V
0M
1I
1W
1H
0T
0[
1)
1&
1%
03
1'
1(
1$
05
04
#60000
09
18
0F
1E
1_
0]
0p
1r
0a
0b
0d
0g
0h
0j
0m
0X
0Y
0Q
0R
0O
0V
0N
0U
0J
0K
0H
0G
0+
0.
0,
0/
0&
0%
0#
0"
0*
0-
0$
0!
#70000
19
1F
1]
0r
0c
0e
1f
0i
0k
0l
0n
1o
0Z
0S
0P
1M
0L
0I
0W
1T
1[
01
02
0)
13
00
0'
0(
15
14
#80000
09
08
07
16
0F
0E
0D
1C
1^
0`
0_
0]
0s
1q
1p
1r
#90000
19
1F
1]
0r
1a
1d
0f
1g
1j
1l
1m
0o
1X
1Y
1Q
1R
1N
1U
0M
1J
1K
1G
0T
0[
1+
1.
1,
1/
1#
1"
03
1*
1-
1!
05
04
#100000
09
18
0F
1E
1_
0]
0p
1r
1b
1c
1e
1f
1i
1k
0l
1n
1o
1Z
1S
1P
1M
1L
1I
1W
1H
1T
1[
11
12
1)
13
10
1'
1(
1$
15
14
#110000
19
1F
1]
0r
#120000
09
08
17
0F
0E
1D
1`
0_
0]
0q
1p
1r
#130000
19
1F
1]
0r
#140000
09
18
0F
1E
1_
0]
0p
1r
#150000
19
1F
1]
0r
