Comp Exam/simulation/qsim/CompExam.msim.vcd
$comment
	File created using the following command:
		vcd file CompExam.msim.vcd -direction
$end
$date
	Tue Oct 07 08:12:28 2025
$end
$version
	ModelSim Version 2019.2
$end
$timescale
	1ps
$end

$scope module compexam_vhd_vec_tst $end
$var wire 1 ! D $end
$var wire 1 " E $end
$var wire 1 # F $end
$var wire 1 $ X $end

$scope module i1 $end
$var wire 1 % gnd $end
$var wire 1 & vcc $end
$var wire 1 ' unknown $end
$var wire 1 ( devoe $end
$var wire 1 ) devclrn $end
$var wire 1 * devpor $end
$var wire 1 + ww_devoe $end
$var wire 1 , ww_devclrn $end
$var wire 1 - ww_devpor $end
$var wire 1 . ww_D $end
$var wire 1 / ww_E $end
$var wire 1 0 ww_F $end
$var wire 1 1 ww_X $end
$var wire 1 2 \~QUARTUS_CREATED_GND~I_combout\ $end
$var wire 1 3 \D~input_o\ $end
$var wire 1 4 \E~input_o\ $end
$var wire 1 5 \F~input_o\ $end
$var wire 1 6 \X~0_combout\ $end
$var wire 1 7 \ALT_INV_D~input_o\ $end
$var wire 1 8 \ALT_INV_F~input_o\ $end
$var wire 1 9 \ALT_INV_E~input_o\ $end
$var wire 1 : \ALT_INV_X~0_combout\ $end
$upscope $end
$upscope $end
$enddefinitions $end
#0
$dumpvars
0!
0"
0#
1$
0%
1&
x'
1(
1)
1*
1+
1,
1-
0.
0/
00
11
x2
03
04
05
06
17
18
19
1:
$end
#10000
1#
10
15
08
#20000
0#
1"
00
1/
14
05
09
18
16
0:
01
0$
#30000
1#
10
15
08
06
1:
11
1$
#40000
0#
0"
1!
00
0/
1.
13
04
05
07
19
18
16
0:
01
0$
#50000
1#
10
15
08
#60000
0#
1"
00
1/
14
05
09
18
#70000
1#
10
15
08
06
1:
11
1$
