HW7/simulation/qsim/counter.msim.vcd
$comment
	File created using the following command:
		vcd file counter.msim.vcd -direction
$end
$date
	Thu Oct 30 14:47:21 2025
$end
$version
	ModelSim Version 2019.2
$end
$timescale
	1ps
$end

$scope module counter_vhd_vec_tst $end
$var wire 1 ! clk $end
$var wire 1 " count [3] $end
$var wire 1 # count [2] $end
$var wire 1 $ count [1] $end
$var wire 1 % count [0] $end
$var wire 1 & count_direction $end
$var wire 1 ' reset_n $end

$scope module i1 $end
$var wire 1 ( gnd $end
$var wire 1 ) vcc $end
$var wire 1 * unknown $end
$var wire 1 + devoe $end
$var wire 1 , devclrn $end
$var wire 1 - devpor $end
$var wire 1 . ww_devoe $end
$var wire 1 / ww_devclrn $end
$var wire 1 0 ww_devpor $end
$var wire 1 1 ww_count_direction $end
$var wire 1 2 ww_clk $end
$var wire 1 3 ww_reset_n $end
$var wire 1 4 ww_count [3] $end
$var wire 1 5 ww_count [2] $end
$var wire 1 6 ww_count [1] $end
$var wire 1 7 ww_count [0] $end
$var wire 1 8 \~QUARTUS_CREATED_GND~I_combout\ $end
$var wire 1 9 \clk~input_o\ $end
$var wire 1 : \clk~inputCLKENA0_outclk\ $end
$var wire 1 ; \count_direction~input_o\ $end
$var wire 1 < \int_count~1_combout\ $end
$var wire 1 = \reset_n~input_o\ $end
$var wire 1 > \int_count~3_combout\ $end
$var wire 1 ? \int_count~2_combout\ $end
$var wire 1 @ \int_count~0_combout\ $end
$var wire 1 A int_count [3] $end
$var wire 1 B int_count [2] $end
$var wire 1 C int_count [1] $end
$var wire 1 D int_count [0] $end
$var wire 1 E \ALT_INV_count_direction~input_o\ $end
$var wire 1 F ALT_INV_int_count [3] $end
$var wire 1 G ALT_INV_int_count [2] $end
$var wire 1 H ALT_INV_int_count [1] $end
$var wire 1 I ALT_INV_int_count [0] $end
$upscope $end
$upscope $end
$enddefinitions $end
#0
$dumpvars
0!
1&
1'
0(
1)
x*
1+
1,
1-
1.
1/
10
11
02
13
x8
09
0:
1;
0<
1=
0>
0?
1@
0E
04
05
06
07
0A
0B
0C
0D
1F
1G
1H
1I
0"
0#
0$
0%
$end
#10000
1!
12
19
1:
1D
0I
1<
0@
17
1%
#20000
0!
02
09
0:
#30000
1!
12
19
1:
1C
0D
0H
1I
1@
07
16
0%
1$
#40000
0!
02
09
0:
#50000
1!
12
19
1:
1D
0I
0<
1?
0@
17
1%
#60000
0!
02
09
0:
#70000
1!
12
19
1:
0C
1B
0D
1H
0G
1I
1@
07
15
06
0%
0$
1#
#80000
0!
02
09
0:
#90000
1!
12
19
1:
1D
0I
1<
0@
17
1%
#100000
0!
02
09
0:
#110000
1!
12
19
1:
1C
0D
0H
1I
1@
07
16
0%
1$
#120000
0!
02
09
0:
#130000
1!
12
19
1:
1D
0I
0<
1>
0?
0@
17
1%
#140000
0!
02
09
0:
#150000
1!
12
19
1:
0C
1A
0B
0D
1H
0F
1G
1I
1@
07
05
14
06
0%
0$
0#
1"
#160000
0!
02
09
0:
#170000
1!
12
19
1:
1D
0I
1<
0@
17
1%
#180000
0!
02
09
0:
#190000
1!
12
19
1:
1C
0D
0H
1I
1@
07
16
0%
1$
#200000
0!
02
09
0:
#210000
1!
12
19
1:
1D
0I
0<
1?
0@
17
1%
#220000
0!
02
09
0:
#230000
1!
12
19
1:
0C
1B
0D
1H
0G
1I
1@
07
15
06
0%
0$
1#
#240000
0!
02
09
0:
#250000
1!
12
19
1:
1D
0I
1<
0@
17
1%
#260000
0!
02
09
0:
#270000
1!
12
19
1:
1C
0D
0H
1I
1@
07
16
0%
1$
#280000
0!
02
09
0:
#290000
1!
12
19
1:
1D
0I
17
1%
#300000
0!
02
09
0:
#310000
1!
12
19
1:
#320000
0!
02
09
0:
#330000
1!
12
19
1:
#340000
0!
02
09
0:
#350000
1!
12
19
1:
#360000
0!
0&
02
01
0;
09
0:
1E
0@
#370000
1!
12
19
1:
0D
1I
0<
1@
07
0%
#380000
0!
02
09
0:
#390000
1!
12
19
1:
0C
1D
1H
0I
0@
17
06
1%
0$
#400000
0!
02
09
0:
#410000
1!
12
19
1:
0D
1I
1<
0?
1@
07
0%
#420000
0!
02
09
0:
#430000
1!
12
19
1:
1C
0B
1D
0H
1G
0I
0@
17
05
16
1%
1$
0#
#440000
0!
02
09
0:
#450000
1!
12
19
1:
0D
1I
0<
1@
07
0%
#460000
0!
02
09
0:
#470000
1!
12
19
1:
0C
1D
1H
0I
0@
17
06
1%
0$
#480000
0!
02
09
0:
#490000
1!
12
19
1:
0D
1I
1<
0>
1?
1@
07
0%
#500000
0!
02
09
0:
#510000
1!
12
19
1:
1C
0A
1B
1D
0H
1F
0G
0I
0@
17
15
04
16
1%
1$
1#
0"
#520000
0!
02
09
0:
#530000
1!
12
19
1:
0D
1I
0<
1@
07
0%
#540000
0!
02
09
0:
#550000
1!
12
19
1:
0C
1D
1H
0I
0@
17
06
1%
0$
#560000
0!
02
09
0:
#570000
1!
12
19
1:
0D
1I
1<
0?
1@
07
0%
#580000
0!
02
09
0:
#590000
1!
12
19
1:
1C
0B
1D
0H
1G
0I
0@
17
05
16
1%
1$
0#
#600000
0!
02
09
0:
#610000
1!
12
19
1:
0D
1I
0<
1@
07
0%
#620000
0!
02
09
0:
#630000
1!
12
19
1:
0C
1D
1H
0I
0@
17
06
1%
0$
#640000
0!
02
09
0:
#650000
1!
12
19
1:
0D
1I
07
0%
#660000
0!
02
09
0:
#670000
1!
12
19
1:
#680000
0!
02
09
0:
#690000
1!
12
19
1:
#700000
0!
02
09
0:
#710000
1!
12
19
1:
